Version 4
SHEET 1 880 680
WIRE 80 112 0 112
WIRE 224 112 160 112
WIRE 304 112 224 112
WIRE 304 144 304 112
WIRE 0 160 0 112
WIRE 224 160 224 112
WIRE 0 272 0 240
WIRE 224 272 224 224
WIRE 304 272 304 224
FLAG 224 272 0
FLAG 0 272 0
FLAG 304 272 0
SYMBOL zener 240 224 R180
WINDOW 0 24 72 Left 0
WINDOW 3 24 0 Left 0
SYMATTR InstName D1
SYMATTR Value BZX84C6V2L
SYMBOL Misc\\EuropeanResistor 176 96 R90
WINDOW 0 5 56 VBottom 0
WINDOW 3 27 56 VTop 0
SYMATTR InstName R1
SYMATTR Value 100
SYMBOL voltage 0 144 R0
WINDOW 123 0 0 Left 0
WINDOW 39 0 0 Left 0
SYMATTR InstName V1
SYMATTR Value 1
SYMBOL Misc\\EuropeanResistor 320 240 R180
WINDOW 0 31 76 Left 2
WINDOW 3 31 40 Left 2
SYMATTR InstName R2
SYMATTR Value 1Meg
TEXT 40 312 Left 0 !.dc V1 -0.6 10 0.1
