Version 4
SHEET 1 880 680
WIRE 128 -112 32 -112
WIRE 272 -112 208 -112
WIRE 352 -112 272 -112
WIRE 496 -112 432 -112
WIRE 32 -64 32 -112
WIRE 272 -48 272 -112
WIRE 496 -48 496 -112
WIRE 32 48 32 16
WIRE 272 48 272 16
WIRE 496 48 496 16
FLAG 32 48 0
FLAG 272 48 0
FLAG 496 48 0
SYMBOL res 224 -128 R90
WINDOW 0 0 56 VBottom 2
WINDOW 3 32 56 VTop 2
SYMATTR InstName R1
SYMATTR Value 1000
SYMBOL cap 256 -48 R0
SYMATTR InstName C1
SYMATTR Value 1e-6
SYMBOL voltage 32 -80 R0
WINDOW 123 24 44 Left 2
WINDOW 39 0 0 Left 0
SYMATTR InstName V1
SYMATTR Value SINE()
SYMATTR Value2 AC 1 0
SYMBOL res 448 -128 R90
WINDOW 0 0 56 VBottom 2
WINDOW 3 32 56 VTop 2
SYMATTR InstName R2
SYMATTR Value 100k
SYMBOL cap 480 -48 R0
SYMATTR InstName C2
SYMATTR Value 1e-8
TEXT -2 72 Left 2 !.ac dec 100 1 100k
