\relax 
\providecommand\hyper@newdestlabel[2]{}
\providecommand\babel@aux[2]{}
\@nameuse{bbl@beforestart}
\catcode `"\active 
\providecommand\HyperFirstAtBeginDocument{\AtBeginDocument}
\HyperFirstAtBeginDocument{\ifx\hyper@anchor\@undefined
\global\let\oldcontentsline\contentsline
\gdef\contentsline#1#2#3#4{\oldcontentsline{#1}{#2}{#3}}
\global\let\oldnewlabel\newlabel
\gdef\newlabel#1#2{\newlabelxx{#1}#2}
\gdef\newlabelxx#1#2#3#4#5#6{\oldnewlabel{#1}{{#2}{#3}}}
\AtEndDocument{\ifx\hyper@anchor\@undefined
\let\contentsline\oldcontentsline
\let\newlabel\oldnewlabel
\fi}
\fi}
\global\let\hyper@last\relax 
\gdef\HyperFirstAtBeginDocument#1{#1}
\providecommand\HyField@AuxAddToFields[1]{}
\providecommand\HyField@AuxAddToCoFields[2]{}
\gincltex@bb{res/grundlagen/stromknotendefinition_circ.tex}{0}{0}{222.04636}{98.15527}
\providecommand\@newglossary[4]{}
\@newglossary{main}{glg}{gls}{glo}
\@newglossary{symbols}{slg}{sls}{slo}
\providecommand\@glsxtr@savepreloctag[2]{}
\providecommand \oddpage@label [2]{}
\babel@aux{german}{}
\@writefile{toc}{\contentsline {section}{\numberline {1}Grundlagen}{1}{section.1}\protected@file@percent }
\@writefile{toc}{\contentsline {subsection}{\numberline {1.1}Ladung, Spannung und Strom}{1}{subsection.1.1}\protected@file@percent }
\newlabel{eq:i_is_dtq}{{2}{1}{Ladung, Spannung und Strom}{equation.1.2}{}}
\newlabel{eq:i_is_dtq@cref}{{[equation][2][]2}{[1][1][]1}}
\@writefile{toc}{\contentsline {subsection}{\numberline {1.2}Kirchhoff Gesetze}{1}{subsection.1.2}\protected@file@percent }
\@writefile{toc}{\contentsline {subsubsection}{\numberline {1.2.1}Knotenpunktsatz}{1}{subsubsection.1.2.1}\protected@file@percent }
\gincltex@bb{res/grundlagen/masche1_circ.tex}{0}{0}{137.00722}{98.15527}
\@writefile{lof}{\contentsline {figure}{\numberline {1}{\ignorespaces Definition eines Stromknoten\relax }}{2}{figure.caption.2}\protected@file@percent }
\@writefile{toc}{\contentsline {subsubsection}{\numberline {1.2.2}Maschengesetz}{2}{subsubsection.1.2.2}\protected@file@percent }
\gincltex@bb{res/grundlagen/masche2_circ.tex}{0}{0}{222.04636}{98.15527}
\gincltex@bb{res/grundlagen/masche3_circ.tex}{0}{0}{115.40749}{76.63425}
\@writefile{lof}{\contentsline {figure}{\numberline {2}{\ignorespaces Einfache Kirchhoff Masche\relax }}{3}{figure.caption.3}\protected@file@percent }
\@writefile{lof}{\contentsline {figure}{\numberline {3}{\ignorespaces Kirchhoff Maschen einer Parallelschaltung\relax }}{3}{figure.caption.4}\protected@file@percent }
\gincltex@bb{res/grundlagen/ohm_reihe1_circ.tex}{0}{0}{228.79298}{76.63425}
\@writefile{lof}{\contentsline {figure}{\numberline {4}{\ignorespaces Beweis des Maschensatzes\relax }}{4}{figure.caption.5}\protected@file@percent }
\@writefile{toc}{\contentsline {subsection}{\numberline {1.3}Reihenschaltung von Ohmschen Widerstaenden}{4}{subsection.1.3}\protected@file@percent }
\@writefile{lof}{\contentsline {figure}{\numberline {5}{\ignorespaces Reihenschaltung Ohmscher Widerstaende\relax }}{4}{figure.caption.6}\protected@file@percent }
\newlabel{eq:ohm_series1}{{9}{4}{Reihenschaltung von Ohmschen Widerstaenden}{equation.1.9}{}}
\newlabel{eq:ohm_series1@cref}{{[equation][9][]9}{[1][4][]4}}
\newlabel{eq:ohm_series2}{{10}{4}{Reihenschaltung von Ohmschen Widerstaenden}{equation.1.10}{}}
\newlabel{eq:ohm_series2@cref}{{[equation][10][]10}{[1][4][]4}}
\gincltex@bb{res/grundlagen/ohm_reihe2_circ.tex}{0}{0}{228.79298}{190.01974}
\@writefile{lof}{\contentsline {figure}{\numberline {6}{\ignorespaces Reihenschaltung Ohmscher Widerstaende vereinfachen\relax }}{5}{figure.caption.7}\protected@file@percent }
\gincltex@bb{res/grundlagen/ohm_parallel1_circ.tex}{0}{0}{196.78699}{60.26549}
\@writefile{toc}{\contentsline {subsection}{\numberline {1.4}Parallelschaltung Ohmscher Widerstaende}{6}{subsection.1.4}\protected@file@percent }
\@writefile{lof}{\contentsline {figure}{\numberline {7}{\ignorespaces Parallelschaltung Ohmscher Widerstaende\relax }}{6}{figure.caption.8}\protected@file@percent }
\newlabel{eq:ohm_parallel1}{{18}{6}{Parallelschaltung Ohmscher Widerstaende}{equation.1.18}{}}
\newlabel{eq:ohm_parallel1@cref}{{[equation][18][]18}{[1][6][]6}}
\newlabel{eq:ohm_parallel2}{{19}{6}{Parallelschaltung Ohmscher Widerstaende}{equation.1.19}{}}
\newlabel{eq:ohm_parallel2@cref}{{[equation][19][]19}{[1][6][]6}}
\gincltex@bb{res/grundlagen/spannungsteiler1_circ.tex}{0}{0}{184.62666}{83.1594}
\@writefile{toc}{\contentsline {subsection}{\numberline {1.5}Spannungsteiler}{7}{subsection.1.5}\protected@file@percent }
\@writefile{lof}{\contentsline {figure}{\numberline {8}{\ignorespaces Spannungsteiler\relax }}{7}{figure.caption.9}\protected@file@percent }
\newlabel{eq:volt_div}{{26}{7}{Spannungsteiler}{equation.1.26}{}}
\newlabel{eq:volt_div@cref}{{[equation][26][]26}{[1][7][]7}}
\gincltex@bb{res/grundlagen/spannungsteiler2_circ.tex}{0}{0}{201.63864}{85.0619}
\@writefile{toc}{\contentsline {subsubsection}{\numberline {1.5.1}Belasteter Spannungsteiler}{8}{subsubsection.1.5.1}\protected@file@percent }
\@writefile{lof}{\contentsline {figure}{\numberline {9}{\ignorespaces Belasteter Spannungsteiler\relax }}{8}{figure.caption.10}\protected@file@percent }
\gincltex@bb{res/grundlagen/thevenin_aequivalent1_circ.tex}{0}{0}{211.34956}{83.1594}
\gincltex@bb{res/grundlagen/thevenin_ui_plot.tex}{0}{0}{143.97707}{106.87398}
\@writefile{toc}{\contentsline {subsection}{\numberline {1.6}Th\'{e}venin Theorem}{9}{subsection.1.6}\protected@file@percent }
\@writefile{lof}{\contentsline {figure}{\numberline {10}{\ignorespaces Th\`{e}venin Aequivalent\relax }}{9}{figure.caption.11}\protected@file@percent }
\gincltex@bb{res/grundlagen/thevenin_aequivalent2_circ.tex}{0}{0}{211.34956}{90.4475}
\@writefile{lof}{\contentsline {figure}{\numberline {11}{\ignorespaces UI-Kennlinie linearer Schaltungen\relax }}{10}{figure.caption.12}\protected@file@percent }
\@writefile{lof}{\contentsline {figure}{\numberline {12}{\ignorespaces Th\`{e}vening Aequivalenzumformung\relax }}{11}{figure.caption.13}\protected@file@percent }
\@writefile{toc}{\contentsline {subsubsection}{\numberline {1.6.1}Th\'{e}revin Aequivalant eines Spannungsteilers}{11}{subsubsection.1.6.1}\protected@file@percent }
\@writefile{toc}{\contentsline {section}{\numberline {2}Frequenzabhaengige Bauteile}{11}{section.2}\protected@file@percent }
\@writefile{toc}{\contentsline {subsection}{\numberline {2.1}Wechselspannung und Wechselstrom}{11}{subsection.2.1}\protected@file@percent }
\newlabel{eq:sinus_u}{{37}{12}{Wechselspannung und Wechselstrom}{equation.2.37}{}}
\newlabel{eq:sinus_u@cref}{{[equation][37][]37}{[1][11][]12}}
\@writefile{toc}{\contentsline {subsection}{\numberline {2.2}Ohmscher Widerstand in Wechselstromkreises}{12}{subsection.2.2}\protected@file@percent }
\@writefile{toc}{\contentsline {subsection}{\numberline {2.3}Kondenstor}{12}{subsection.2.3}\protected@file@percent }
\newlabel{eq:qcu}{{42}{12}{Kondenstor}{equation.2.42}{}}
\newlabel{eq:qcu@cref}{{[equation][42][]42}{[1][12][]12}}
\newlabel{i_capacitor}{{43}{12}{Kondenstor}{equation.2.43}{}}
\newlabel{i_capacitor@cref}{{[equation][43][]43}{[1][12][]12}}
\gincltex@bb{res/frequenzabhaengige_bauteile/kondensator_laden_circ.tex}{0}{0}{195.40944}{76.63425}
\@writefile{toc}{\contentsline {subsubsection}{\numberline {2.3.1}Lade- und Entladeprozess}{13}{subsubsection.2.3.1}\protected@file@percent }
\@writefile{lof}{\contentsline {figure}{\numberline {13}{\ignorespaces Kondensator Ladeschaltung\relax }}{13}{figure.caption.14}\protected@file@percent }
\newlabel{eq:c_charging}{{47}{13}{Lade- und Entladeprozess}{equation.2.47}{}}
\newlabel{eq:c_charging@cref}{{[equation][47][]47}{[1][13][]13}}
\newlabel{eq:c_charging_solution}{{50}{13}{Lade- und Entladeprozess}{equation.2.50}{}}
\newlabel{eq:c_charging_solution@cref}{{[equation][50][]50}{[1][13][]13}}
\gincltex@bb{res/frequenzabhaengige_bauteile/kondensator_entladen_circ.tex}{0}{0}{125.64632}{63.24326}
\@writefile{lof}{\contentsline {figure}{\numberline {14}{\ignorespaces Kondensator Entladeschaltung\relax }}{14}{figure.caption.15}\protected@file@percent }
\gincltex@bb{res/frequenzabhaengige_bauteile/kondensator_laden_plot.tex}{0}{0}{224.48344}{199.67139}
\gincltex@bb{res/frequenzabhaengige_bauteile/kondensator_entladen_plot.tex}{0}{0}{224.48344}{199.67139}
\@writefile{lof}{\contentsline {figure}{\numberline {15}{\ignorespaces Exponentieller Lade-/ Entladeverlauf des Kondensators\relax }}{15}{figure.caption.16}\protected@file@percent }
\gincltex@bb{res/frequenzabhaengige_bauteile/kondensator_impedanz_circ.tex}{0}{0}{148.51564}{57.09125}
\@writefile{toc}{\contentsline {subsubsection}{\numberline {2.3.2}Wechselstromwiderstand des Kondensators}{16}{subsubsection.2.3.2}\protected@file@percent }
\@writefile{lof}{\contentsline {figure}{\numberline {16}{\ignorespaces Impedanz eines Kondensators\relax }}{16}{figure.caption.17}\protected@file@percent }
\@writefile{toc}{\contentsline {subsubsection}{\numberline {2.3.3}Komplexe Spannung und komplexer Strom}{16}{subsubsection.2.3.3}\protected@file@percent }
\gincltex@bb{res/frequenzabhaengige_bauteile/rc_tiefpass_circ.tex}{0}{0}{140.83803}{78.22136}
\newlabel{eq:capacitor_Z}{{72}{17}{Komplexe Spannung und komplexer Strom}{equation.2.72}{}}
\newlabel{eq:capacitor_Z@cref}{{[equation][72][]72}{[1][17][]17}}
\@writefile{toc}{\contentsline {subsubsection}{\numberline {2.3.4}Kondensator als Gleichstromsperre}{17}{subsubsection.2.3.4}\protected@file@percent }
\@writefile{toc}{\contentsline {subsubsection}{\numberline {2.3.5}RC-Tiefpass}{17}{subsubsection.2.3.5}\protected@file@percent }
\gincltex@bb{res/frequenzabhaengige_bauteile/rc_tiefpass_h_plot.tex}{0}{0}{247.97853}{194.34169}
\@writefile{lof}{\contentsline {figure}{\numberline {17}{\ignorespaces RC-Tiefpasschatung\relax }}{18}{figure.caption.18}\protected@file@percent }
\@writefile{lof}{\contentsline {figure}{\numberline {18}{\ignorespaces Bodediagramm des RC-Tiefpass Frequenzgangs\relax }}{19}{figure.caption.19}\protected@file@percent }
\gincltex@bb{res/frequenzabhaengige_bauteile/rc_tiefpass_phi_plot.tex}{0}{0}{247.97853}{194.3298}
\@writefile{lof}{\contentsline {figure}{\numberline {19}{\ignorespaces RC-Tiefpass Phasengang\relax }}{20}{figure.caption.20}\protected@file@percent }
\@writefile{toc}{\contentsline {subsubsection}{\numberline {2.3.6}Tiefpass als Integrator}{20}{subsubsection.2.3.6}\protected@file@percent }
\gincltex@bb{res/frequenzabhaengige_bauteile/rc_hochpass_circ.tex}{0}{0}{140.83803}{84.76945}
\@writefile{toc}{\contentsline {subsubsection}{\numberline {2.3.7}RC-Hochpass}{21}{subsubsection.2.3.7}\protected@file@percent }
\@writefile{lof}{\contentsline {figure}{\numberline {20}{\ignorespaces RC-Hochpasschaltung\relax }}{21}{figure.caption.21}\protected@file@percent }
\gincltex@bb{res/frequenzabhaengige_bauteile/rc_hochpass_h_plot.tex}{0}{0}{247.97853}{194.34169}
\gincltex@bb{res/frequenzabhaengige_bauteile/rc_hochpass_phi_plot.tex}{0}{0}{247.97853}{194.3298}
\@writefile{lof}{\contentsline {figure}{\numberline {21}{\ignorespaces Bodediagramm des RC-Hochpasses Frequenzgangs\relax }}{22}{figure.caption.22}\protected@file@percent }
\@writefile{lof}{\contentsline {figure}{\numberline {22}{\ignorespaces RC-Hochpass Phasengang\relax }}{23}{figure.caption.23}\protected@file@percent }
\@writefile{toc}{\contentsline {subsubsection}{\numberline {2.3.8}Hochpass als Differenzierer}{23}{subsubsection.2.3.8}\protected@file@percent }
\@writefile{toc}{\contentsline {subsubsection}{\numberline {2.3.9}Tief- und Hochpaesse hoeherer Ordnung}{24}{subsubsection.2.3.9}\protected@file@percent }
\@writefile{toc}{\contentsline {subsubsection}{\numberline {2.3.10}Bandpass}{24}{subsubsection.2.3.10}\protected@file@percent }
\gincltex@bb{res/frequenzabhaengige_bauteile/rc_bandpass_circ.tex}{0}{0}{145.30461}{84.76945}
\gincltex@bb{res/frequenzabhaengige_bauteile/komplexer_spannungsteiler_circ.tex}{0}{0}{184.62666}{83.1594}
\gincltex@bb{res/frequenzabhaengige_bauteile/rc_bandstop_circ.tex}{0}{0}{173.65099}{134.91412}
\@writefile{lof}{\contentsline {figure}{\numberline {23}{\ignorespaces Bandpasschaltung\relax }}{25}{figure.caption.24}\protected@file@percent }
\@writefile{toc}{\contentsline {subsubsection}{\numberline {2.3.11}Bandsperre}{25}{subsubsection.2.3.11}\protected@file@percent }
\@writefile{lof}{\contentsline {figure}{\numberline {24}{\ignorespaces Allgemeine Bandsperreschaltung\relax }}{25}{figure.caption.25}\protected@file@percent }
\@writefile{lof}{\contentsline {figure}{\numberline {25}{\ignorespaces Bandsperreschaltung\relax }}{26}{figure.caption.26}\protected@file@percent }
\@writefile{toc}{\contentsline {subsection}{\numberline {2.4}Induktivitaet}{26}{subsection.2.4}\protected@file@percent }
\gincltex@bb{res/frequenzabhaengige_bauteile/induktivitaet_laden_circ.tex}{0}{0}{188.44624}{76.63425}
\@writefile{toc}{\contentsline {subsubsection}{\numberline {2.4.1}Einschalten einer Induktivitaet}{27}{subsubsection.2.4.1}\protected@file@percent }
\@writefile{lof}{\contentsline {figure}{\numberline {26}{\ignorespaces Induktivitaet Ladeschaltung\relax }}{27}{figure.caption.27}\protected@file@percent }
\gincltex@bb{res/frequenzabhaengige_bauteile/induktivitaet_laden_plot.tex}{0}{0}{224.48344}{199.67139}
\@writefile{lof}{\contentsline {figure}{\numberline {27}{\ignorespaces Exponentieller Ladevorgang einer Induktivitaet\relax }}{28}{figure.caption.28}\protected@file@percent }
\@writefile{toc}{\contentsline {subsubsection}{\numberline {2.4.2}Entladen einer Spule}{28}{subsubsection.2.4.2}\protected@file@percent }
\gincltex@bb{res/frequenzabhaengige_bauteile/induktivitaet_entladen_plot.tex}{0}{0}{224.48344}{199.67139}
\gincltex@bb{res/frequenzabhaengige_bauteile/induktivitaet_impedanz_circ.tex}{0}{0}{140.91458}{57.09125}
\@writefile{lof}{\contentsline {figure}{\numberline {28}{\ignorespaces Exponentieller Entladevorgang einer Induktivitaet\relax }}{29}{figure.caption.29}\protected@file@percent }
\@writefile{toc}{\contentsline {subsubsection}{\numberline {2.4.3}Wechselstromwiderstand der Spule}{29}{subsubsection.2.4.3}\protected@file@percent }
\gincltex@bb{res/frequenzabhaengige_bauteile/rl_hochpass_circ.tex}{0}{0}{140.83803}{78.22136}
\@writefile{lof}{\contentsline {figure}{\numberline {29}{\ignorespaces Impedanz einer Induktivitaet\relax }}{30}{figure.caption.30}\protected@file@percent }
\@writefile{toc}{\contentsline {subsubsection}{\numberline {2.4.4}RL-Hochpass}{30}{subsubsection.2.4.4}\protected@file@percent }
\@writefile{lof}{\contentsline {figure}{\numberline {30}{\ignorespaces RL-Hochpasschaltung\relax }}{30}{figure.caption.31}\protected@file@percent }
\gincltex@bb{res/frequenzabhaengige_bauteile/rl_tiefpass_circ.tex}{0}{0}{140.83803}{78.22136}
\@writefile{toc}{\contentsline {subsection}{\numberline {2.5}RL-Tiefpass}{31}{subsection.2.5}\protected@file@percent }
\@writefile{lof}{\contentsline {figure}{\numberline {31}{\ignorespaces RL-Tiefpasschaltung\relax }}{31}{figure.caption.32}\protected@file@percent }
\gincltex@bb{res/frequenzabhaengige_bauteile/rlc_reihe_circ.tex}{0}{0}{111.91153}{107.65945}
\@writefile{toc}{\contentsline {subsection}{\numberline {2.6}RLC-Schwingkreis}{32}{subsection.2.6}\protected@file@percent }
\@writefile{toc}{\contentsline {subsubsection}{\numberline {2.6.1}Reihenschwingkreis}{32}{subsubsection.2.6.1}\protected@file@percent }
\@writefile{lof}{\contentsline {figure}{\numberline {32}{\ignorespaces Reihenschwingkreisschaltung\relax }}{33}{figure.caption.33}\protected@file@percent }
\@writefile{lof}{\contentsline {figure}{\numberline {33}{\ignorespaces Verhalten des Schwingkreises fuer unterschiedliche Bedingungen\relax }}{34}{figure.caption.34}\protected@file@percent }
\gincltex@bb{res/frequenzabhaengige_bauteile/rlc_reihe_plot/rlc_series_plot.tex}{0}{0}{211.90488}{187.66866}
\@writefile{lof}{\contentsline {figure}{\numberline {34}{\ignorespaces Uebertragungsfunktion und Spannungsueberhoehung am Reihenschwingkreis\relax }}{36}{figure.caption.35}\protected@file@percent }
\gincltex@bb{res/frequenzabhaengige_bauteile/rlc_parallel_circ.tex}{0}{0}{141.16739}{113.784}
\@writefile{toc}{\contentsline {subsubsection}{\numberline {2.6.2}Parallelschwingkreis}{38}{subsubsection.2.6.2}\protected@file@percent }
\@writefile{lof}{\contentsline {figure}{\numberline {35}{\ignorespaces Parallelschwingkreisschaltung\relax }}{38}{figure.caption.36}\protected@file@percent }
\@writefile{lof}{\contentsline {figure}{\numberline {36}{\ignorespaces Verhalten des Schwingkreises fuer unterschiedliche Bedingungen\relax }}{39}{figure.caption.37}\protected@file@percent }
\gincltex@bb{res/frequenzabhaengige_bauteile/rlc_parallel_spannungsteiler_circ.tex}{0}{0}{116.95824}{173.65099}
\@writefile{lof}{\contentsline {figure}{\numberline {37}{\ignorespaces Spannungsteiler mit Parallelschwingkreis Schaltung\relax }}{40}{figure.caption.38}\protected@file@percent }
\gincltex@bb{res/nichtlineare_bauteile/diode_ui_plot/diode_ui_plot.tex}{0}{0}{214.0407}{201.28253}
\@writefile{toc}{\contentsline {section}{\numberline {3}Nichtlineare Bauteile}{42}{section.3}\protected@file@percent }
\@writefile{toc}{\contentsline {subsection}{\numberline {3.1}Diode}{42}{subsection.3.1}\protected@file@percent }
\@writefile{lof}{\contentsline {figure}{\numberline {38}{\ignorespaces UI-Kennlinie einer Diode\relax }}{42}{figure.caption.39}\protected@file@percent }
\gincltex@bb{res/nichtlineare_bauteile/diode_ui_cvd_plot.tex}{0}{0}{241.67543}{190.18726}
\gincltex@bb{res/nichtlineare_bauteile/halbwellengleichrichter_circ.tex}{0}{0}{88.61186}{73.38435}
\@writefile{lof}{\contentsline {figure}{\numberline {39}{\ignorespaces UI-Kennlinie einer Diode im CVD-Modell\relax }}{43}{figure.caption.40}\protected@file@percent }
\@writefile{toc}{\contentsline {subsubsection}{\numberline {3.1.1}Halbwellengleichrichter}{43}{subsubsection.3.1.1}\protected@file@percent }
\gincltex@bb{res/nichtlineare_bauteile/halbwellengleichrichter_plot/halbwellengleichrichter_plot.tex}{0}{0}{351.21158}{196.51117}
\gincltex@bb{res/nichtlineare_bauteile/vollwellengleichrichter_circ.tex}{0}{0}{323.76181}{228.75662}
\@writefile{lof}{\contentsline {figure}{\numberline {40}{\ignorespaces Halbwellengleichrichterschaltung\relax }}{44}{figure.caption.41}\protected@file@percent }
\@writefile{lof}{\contentsline {figure}{\numberline {41}{\ignorespaces Spannungsverlauf am Halbwellengleichrichter\relax }}{44}{figure.caption.42}\protected@file@percent }
\gincltex@bb{res/nichtlineare_bauteile/vollwellengleichrichter_plot/vollwellengleichrichter_plot.tex}{0}{0}{351.21158}{196.51117}
\@writefile{toc}{\contentsline {subsubsection}{\numberline {3.1.2}Vollwellengleichrichter (Brueckengleichrichter)}{45}{subsubsection.3.1.2}\protected@file@percent }
\@writefile{lof}{\contentsline {figure}{\numberline {42}{\ignorespaces Vollwellengleichrichterschaltung\relax }}{45}{figure.caption.43}\protected@file@percent }
\@writefile{lof}{\contentsline {figure}{\numberline {43}{\ignorespaces Spannungsverlauf am Vollwellengleichrichter\relax }}{46}{figure.caption.44}\protected@file@percent }
\gincltex@bb{res/nichtlineare_bauteile/villard_duplizierer_circ.tex}{0}{0}{135.10289}{72.12717}
\gincltex@bb{res/nichtlineare_bauteile/villard_duplizierer_plot/villard_duplizierer_plot.tex}{0}{0}{214.0407}{190.18611}
\@writefile{toc}{\contentsline {subsubsection}{\numberline {3.1.3}DC-Spannungsmultiplizierer}{47}{subsubsection.3.1.3}\protected@file@percent }
\@writefile{lof}{\contentsline {figure}{\numberline {44}{\ignorespaces Villardschaltung\relax }}{47}{figure.caption.45}\protected@file@percent }
\gincltex@bb{res/nichtlineare_bauteile/greinacher1_circ.tex}{0}{0}{145.30461}{70.92805}
\gincltex@bb{res/nichtlineare_bauteile/greinacher2_circ.tex}{0}{0}{146.97198}{110.76068}
\@writefile{lof}{\contentsline {figure}{\numberline {45}{\ignorespaces Spannungsverlauf an einer Villardschaltung\relax }}{48}{figure.caption.46}\protected@file@percent }
\@writefile{lof}{\contentsline {figure}{\numberline {46}{\ignorespaces Greinacherschaltung\relax }}{48}{figure.caption.47}\protected@file@percent }
\gincltex@bb{res/nichtlineare_bauteile/cockcroft_watson_circ.tex}{0}{0}{291.33562}{127.4759}
\@writefile{lof}{\contentsline {figure}{\numberline {47}{\ignorespaces Alternative Darstellung der Greinacherschaltung\relax }}{49}{figure.caption.48}\protected@file@percent }
\@writefile{lof}{\contentsline {figure}{\numberline {48}{\ignorespaces Cockcroft-Watson Multipliziererschaltung\relax }}{49}{figure.caption.49}\protected@file@percent }
\gincltex@bb{res/nichtlineare_bauteile/ueberspannungsschutz_asym_circ.tex}{0}{0}{178.56021}{147.42732}
\gincltex@bb{res/nichtlineare_bauteile/ueberspannungsschutz_sym_circ.tex}{0}{0}{178.56021}{150.97063}
\@writefile{toc}{\contentsline {subsubsection}{\numberline {3.1.4}Ueberspannungsschutz}{50}{subsubsection.3.1.4}\protected@file@percent }
\@writefile{lof}{\contentsline {figure}{\numberline {49}{\ignorespaces Einseitige Ueberspannungschutzschaltung\relax }}{50}{figure.caption.50}\protected@file@percent }
\gincltex@bb{res/nichtlineare_bauteile/ueberspannungsschutz_indukt_circ.tex}{0}{0}{150.21384}{97.14517}
\@writefile{lof}{\contentsline {figure}{\numberline {50}{\ignorespaces Beidseitige Ueberspannungsschutzschaltung\relax }}{51}{figure.caption.51}\protected@file@percent }
\@writefile{toc}{\contentsline {subsubsection}{\numberline {3.1.5}Freilaufdiode}{51}{subsubsection.3.1.5}\protected@file@percent }
\@writefile{lof}{\contentsline {figure}{\numberline {51}{\ignorespaces Schutzdiode gegen induktive Spannungsspitze\relax }}{51}{figure.caption.52}\protected@file@percent }
\@writefile{toc}{\contentsline {subsubsection}{\numberline {3.1.6}Zener-Diode}{51}{subsubsection.3.1.6}\protected@file@percent }
\gincltex@bb{res/nichtlineare_bauteile/zener_diode_ui_plot/zener_diode_ui_plot.tex}{0}{0}{221.78941}{201.28253}
\@writefile{lof}{\contentsline {figure}{\numberline {52}{\ignorespaces UI-Kennlinie einer Zenerdiode\relax }}{52}{figure.caption.53}\protected@file@percent }
\@writefile{tdo}{\contentsline {todo}{Zener-Diodenkennlinie Datasheet style einfuegen}{52}{section*.54}\protected@file@percent }
\pgfsyspdfmark {pgfid67}{20104478}{9958023}
\pgfsyspdfmark {pgfid70}{34243870}{9970311}
\pgfsyspdfmark {pgfid71}{36357406}{9746397}
\gincltex@bb{res/nichtlineare_bauteile/zener_diode_ui_kleinsignal_plot.tex}{0}{0}{236.06393}{190.18611}
\gincltex@bb{res/nichtlineare_bauteile/zener_diode_kleinsignal_circ.tex}{0}{0}{227.48186}{35.18633}
\@writefile{lof}{\contentsline {figure}{\numberline {53}{\ignorespaces Kennlinien der Diodenreihe BZY97C10GP $\cdots  $ BZY97C200GP\relax }}{53}{figure.caption.55}\protected@file@percent }
\@writefile{lof}{\contentsline {figure}{\numberline {54}{\ignorespaces Kleinsignalkennlinie einer Zenerdiode\relax }}{53}{figure.caption.56}\protected@file@percent }
\gincltex@bb{res/nichtlineare_bauteile/zener_diode_spannungsregulierer_circ.tex}{0}{0}{302.92569}{78.22136}
\gincltex@bb{res/nichtlineare_bauteile/zener_diode_spannungsregulierer2_circ.tex}{0}{0}{163.44928}{134.91412}
\@writefile{lof}{\contentsline {figure}{\numberline {55}{\ignorespaces Reale und ideale Zenerdioden\relax }}{54}{figure.caption.57}\protected@file@percent }
\@writefile{lof}{\contentsline {figure}{\numberline {56}{\ignorespaces Zenerdiode als Spannungsregulierer\relax }}{54}{figure.caption.58}\protected@file@percent }
\@writefile{lof}{\contentsline {figure}{\numberline {57}{\ignorespaces Zenerdiode (Ersatzschaltbild) als Spannungsregulierer\relax }}{54}{figure.caption.59}\protected@file@percent }
\gincltex@bb{res/nichtlineare_bauteile/diode_schematisch/diode_schematisch.tex}{0}{0}{392.14758}{94.05278}
\@writefile{toc}{\contentsline {subsection}{\numberline {3.2}Physikalische Funktionsweise der Diode}{55}{subsection.3.2}\protected@file@percent }
\@writefile{lof}{\contentsline {figure}{\numberline {58}{\ignorespaces Schematische Darstellung einer np-Diode\relax }}{56}{figure.caption.60}\protected@file@percent }
\@writefile{toc}{\contentsline {section}{\numberline {4}Transistor}{56}{section.4}\protected@file@percent }
\@writefile{toc}{\contentsline {subsection}{\numberline {4.1}Bipolartransistor}{56}{subsection.4.1}\protected@file@percent }
\gincltex@bb{res/transistor/transistor_schematisch/transistor_schematisch.tex}{0}{0}{330.30902}{100.33179}
\gincltex@bb{res/transistor/stark_schwach_dotierte_halbleiter_schicht/stark_schwach_dotierte_halbleiter_schicht.tex}{0}{0}{321.7474}{181.00879}
\@writefile{toc}{\contentsline {subsubsection}{\numberline {4.1.1}Funktionsweise}{57}{subsubsection.4.1.1}\protected@file@percent }
\@writefile{lof}{\contentsline {figure}{\numberline {59}{\ignorespaces Schematische Darstellung eines npn-Transistors\relax }}{57}{figure.caption.61}\protected@file@percent }
\@writefile{lof}{\contentsline {figure}{\numberline {60}{\ignorespaces Stark und schwach dotierter Halbleiter als Spannungsteiler\relax }}{58}{figure.caption.62}\protected@file@percent }
\@writefile{toc}{\contentsline {subsection}{\numberline {4.2}Transistor als Schalter und Pulsgeneratorschaltungen}{58}{subsection.4.2}\protected@file@percent }
\gincltex@bb{res/transistor/last_treiben_circ.tex}{0}{0}{115.37112}{159.7907}
\gincltex@bb{res/transistor/last_treiben2_circ.tex}{0}{0}{115.37112}{131.44432}
\@writefile{toc}{\contentsline {subsubsection}{\numberline {4.2.1}Treiben einer Last}{59}{subsubsection.4.2.1}\protected@file@percent }
\@writefile{lof}{\contentsline {figure}{\numberline {61}{\ignorespaces Transistorschaltung zum Treiben einer Last\relax }}{59}{figure.caption.63}\protected@file@percent }
\gincltex@bb{res/transistor/treiben_geerdete_last_circ.tex}{0}{0}{115.37112}{131.44432}
\@writefile{toc}{\contentsline {subsubsection}{\numberline {4.2.2}Treiben einer geerdeten Last}{60}{subsubsection.4.2.2}\protected@file@percent }
\@writefile{lof}{\contentsline {figure}{\numberline {62}{\ignorespaces Fehlerhafte Transistorschaltung zum Treiben einer geerdeten Last\relax }}{60}{figure.caption.64}\protected@file@percent }
\@writefile{lof}{\contentsline {figure}{\numberline {63}{\ignorespaces Korrekte Transistorschaltung zum Treiben einer Last\relax }}{60}{figure.caption.65}\protected@file@percent }
\gincltex@bb{res/transistor/pulse_generator1_circ.tex}{0}{0}{279.36783}{137.12953}
\gincltex@bb{res/transistor/pulse_generator1_plot.tex}{0}{0}{336.36482}{189.50613}
\@writefile{toc}{\contentsline {subsection}{\numberline {4.3}Pulsgenerator I}{61}{subsection.4.3}\protected@file@percent }
\@writefile{lof}{\contentsline {figure}{\numberline {64}{\ignorespaces Pulsgeneratorschaltung I\relax }}{61}{figure.caption.66}\protected@file@percent }
\gincltex@bb{res/transistor/pulse_generator2_circ.tex}{0}{0}{279.36783}{187.30263}
\@writefile{lof}{\contentsline {figure}{\numberline {65}{\ignorespaces Spannungsverlauf an einer Pulsgeneratorschaltung I\relax }}{62}{figure.caption.67}\protected@file@percent }
\@writefile{toc}{\contentsline {subsection}{\numberline {4.4}Pulsgenerator II}{62}{subsection.4.4}\protected@file@percent }
\gincltex@bb{res/transistor/pulse_generator2_plot.tex}{0}{0}{336.36482}{189.50613}
\@writefile{lof}{\contentsline {figure}{\numberline {66}{\ignorespaces Pulsgeneratorschaltung II\relax }}{63}{figure.caption.68}\protected@file@percent }
\@writefile{lof}{\contentsline {figure}{\numberline {67}{\ignorespaces Spannungsverlauf an einer Pulsgeneratorschaltung II\relax }}{63}{figure.caption.69}\protected@file@percent }
\gincltex@bb{res/transistor/schmitt_trigger_circ.tex}{0}{0}{222.67506}{188.13707}
\@writefile{toc}{\contentsline {subsection}{\numberline {4.5}Pulsgenerator III (Schmitt Trigger)}{64}{subsection.4.5}\protected@file@percent }
\@writefile{lof}{\contentsline {figure}{\numberline {68}{\ignorespaces Schmitt Trigerschaltung\relax }}{64}{figure.caption.70}\protected@file@percent }
\gincltex@bb{res/transistor/emitter_folger_circ.tex}{0}{0}{92.98549}{165.4759}
\@writefile{toc}{\contentsline {subsection}{\numberline {4.6}Stromverstaerker Modell}{65}{subsection.4.6}\protected@file@percent }
\@writefile{toc}{\contentsline {subsection}{\numberline {4.7}Emitterfolger}{65}{subsection.4.7}\protected@file@percent }
\@writefile{lof}{\contentsline {figure}{\numberline {69}{\ignorespaces Emitterfolgerschaltung\relax }}{66}{figure.caption.71}\protected@file@percent }
\gincltex@bb{res/transistor/emitter_folger_clipping_plot/emitter_folger_clipping_plot.tex}{0}{0}{242.64401}{190.1987}
\gincltex@bb{res/transistor/emitter_folger_schutzdiode_circ.tex}{0}{0}{153.65784}{165.4759}
\@writefile{lof}{\contentsline {figure}{\numberline {70}{\ignorespaces Asymmetrisches Verhalten eines Emitterfolgers\relax }}{68}{figure.caption.72}\protected@file@percent }
\@writefile{lof}{\contentsline {figure}{\numberline {71}{\ignorespaces Emitterfolgerschaltung mit Schutzdiode\relax }}{68}{figure.caption.73}\protected@file@percent }
\gincltex@bb{res/transistor/emitter_folger_zener_diode_circ.tex}{0}{0}{196.1774}{165.4759}
\gincltex@bb{res/transistor/emitter_folger_ac_circ.tex}{0}{0}{210.15729}{165.4759}
\@writefile{toc}{\contentsline {subsubsection}{\numberline {4.7.1}Emitterfolger als Spannungsregler}{69}{subsubsection.4.7.1}\protected@file@percent }
\@writefile{lof}{\contentsline {figure}{\numberline {72}{\ignorespaces Emitterfolgerschaltung als Spannungsregler\relax }}{69}{figure.caption.74}\protected@file@percent }
\@writefile{toc}{\contentsline {subsubsection}{\numberline {4.7.2}Emitterfolger fuer Wechselspannungen}{69}{subsubsection.4.7.2}\protected@file@percent }
\gincltex@bb{res/transistor/emitter_folger_ac_signal_plot.tex}{0}{0}{363.10576}{94.74953}
\gincltex@bb{res/transistor/stromquelle_circ.tex}{0}{0}{139.29135}{188.13707}
\@writefile{lof}{\contentsline {figure}{\numberline {73}{\ignorespaces Emitterfolgerschaltung mit eingekoppeltem Wechselspannungssignal\relax }}{70}{figure.caption.75}\protected@file@percent }
\providecommand*\caption@xref[2]{\@setref\relax\@undefined{#1}}
\newlabel{circ:Emitterfolger_AC}{{73}{70}{Emitterfolgerschaltung mit eingekoppeltem Wechselspannungssignal\relax }{figure.caption.75}{}}
\newlabel{circ:Emitterfolger_AC@cref}{{[figure][73][]73}{[1][69][]70}}
\@writefile{lof}{\contentsline {figure}{\numberline {74}{\ignorespaces Von links nach rechts: Eingangssignal, Einganggsignal mit Arbeitspunkt Offset, Ausgangssignal\relax }}{70}{figure.caption.76}\protected@file@percent }
\@writefile{toc}{\contentsline {subsection}{\numberline {4.8}Stromquelle}{70}{subsection.4.8}\protected@file@percent }
\gincltex@bb{res/transistor/emitter_verstaerker_circ.tex}{0}{0}{224.52379}{188.15308}
\@writefile{lof}{\contentsline {figure}{\numberline {75}{\ignorespaces Stromquellenschaltung\relax }}{71}{figure.caption.77}\protected@file@percent }
\newlabel{circ:Emitterfolger_Stromquelle}{{75}{71}{Stromquellenschaltung\relax }{figure.caption.77}{}}
\newlabel{circ:Emitterfolger_Stromquelle@cref}{{[figure][75][]75}{[1][70][]71}}
\@writefile{toc}{\contentsline {subsection}{\numberline {4.9}Verstaerker in Emitterschaltung}{71}{subsection.4.9}\protected@file@percent }
\@writefile{lof}{\contentsline {figure}{\numberline {76}{\ignorespaces Emitterverstaerkerschaltung\relax }}{72}{figure.caption.78}\protected@file@percent }
\newlabel{circ:Emitterverstaerkerschaltung}{{76}{72}{Emitterverstaerkerschaltung\relax }{figure.caption.78}{}}
\newlabel{circ:Emitterverstaerkerschaltung@cref}{{[figure][76][]76}{[1][71][]72}}
\gincltex@bb{res/transistor/emitter_verstaerker_eber_moll_circ.tex}{0}{0}{224.52379}{216.49945}
\@writefile{toc}{\contentsline {subsection}{\numberline {4.10}Ebers-Moll Modell des Transistors}{73}{subsection.4.10}\protected@file@percent }
\@writefile{toc}{\contentsline {subsection}{\numberline {4.11}Bedeutung des Ebers-Moll Modell fuer den Emitterfolger}{74}{subsection.4.11}\protected@file@percent }
\@writefile{lof}{\contentsline {figure}{\numberline {77}{\ignorespaces Emitterfolger mit intrinsischem Emitterwiderstand\relax }}{74}{figure.caption.79}\protected@file@percent }
\@writefile{toc}{\contentsline {subsection}{\numberline {4.12}Bedeutung des Ebers-Moll Modell fuer den Verstaerker in Emitterschaltung}{74}{subsection.4.12}\protected@file@percent }
\gincltex@bb{res/transistor/emitter_verstaerker2_circ.tex}{0}{0}{224.52379}{188.15308}
\@writefile{toc}{\contentsline {subsection}{\numberline {4.13}Stabilisierung des Arbeitspunktes}{75}{subsection.4.13}\protected@file@percent }
\@writefile{toc}{\contentsline {subsubsection}{\numberline {4.13.1}Stromgegenkopplung}{75}{subsubsection.4.13.1}\protected@file@percent }
\@writefile{lof}{\contentsline {figure}{\numberline {78}{\ignorespaces Emitterfolger mit zusammengefasstem Emitterwiderstand\relax }}{75}{figure.caption.80}\protected@file@percent }
\gincltex@bb{res/transistor/emitter_verstaerker_bypass_circ.tex}{0}{0}{224.52379}{188.15308}
\@writefile{lof}{\contentsline {figure}{\numberline {79}{\ignorespaces Emitterfolger mit Bypass Kondensator\relax }}{76}{figure.caption.81}\protected@file@percent }
\@writefile{toc}{\contentsline {subsection}{\numberline {4.14}Gegenkopplung allgemein}{76}{subsection.4.14}\protected@file@percent }
\gincltex@bb{res/transistor/gegenkopplung_schematisch.tex}{0}{0}{307.7142}{102.4456}
\@writefile{lof}{\contentsline {figure}{\numberline {80}{\ignorespaces Schematische Darstellung einer Gegenkopplung\relax }}{77}{figure.caption.82}\protected@file@percent }
\@writefile{toc}{\contentsline {subsection}{\numberline {4.15}Entwurf von Transistorschaltungen}{78}{subsection.4.15}\protected@file@percent }
\@writefile{toc}{\contentsline {subsubsection}{\numberline {4.15.1}Dimensionierung eines Emitterfolgers}{78}{subsubsection.4.15.1}\protected@file@percent }
\@writefile{toc}{\contentsline {subsubsection}{\numberline {4.15.2}Stromquelle}{80}{subsubsection.4.15.2}\protected@file@percent }
\@writefile{toc}{\contentsline {section}{\numberline {5}Operationsverstaerker}{81}{section.5}\protected@file@percent }
\gincltex@bb{res/opv/opv_invertierender_verstaerker_circ.tex}{0}{0}{222.67506}{92.70743}
\gincltex@bb{res/opv/opv_invertierender_verstaerker_masche_circ.tex}{0}{0}{317.92635}{106.88062}
\@writefile{toc}{\contentsline {subsection}{\numberline {5.1}Invertierende Verstaerkerschaltung}{82}{subsection.5.1}\protected@file@percent }
\@writefile{lof}{\contentsline {figure}{\numberline {81}{\ignorespaces Invertierende OPV Verstaerkerschaltung\relax }}{82}{figure.caption.83}\protected@file@percent }
\@writefile{lof}{\contentsline {figure}{\numberline {82}{\ignorespaces Invetierende OPV Verstaerkerschaltung mit Kirchoff Masche ueber virtuellen Kurzschluss\relax }}{82}{figure.caption.84}\protected@file@percent }
\gincltex@bb{res/opv/opv_verstaerker_circ.tex}{0}{0}{194.32869}{143.66246}
\@writefile{toc}{\contentsline {subsection}{\numberline {5.2}Nichtinvertierender Verstaerker}{83}{subsection.5.2}\protected@file@percent }
\@writefile{lof}{\contentsline {figure}{\numberline {83}{\ignorespaces Nichtinvertierende OPV Verstaerkerschaltung\relax }}{83}{figure.caption.85}\protected@file@percent }
\gincltex@bb{res/opv/opv_folger_circ.tex}{0}{0}{194.32869}{92.41754}
\gincltex@bb{res/opv/opv_verstaerker_ac_circ.tex}{0}{0}{279.36783}{143.66246}
\@writefile{lof}{\contentsline {figure}{\numberline {84}{\ignorespaces OPV Folgerschaltung\relax }}{84}{figure.caption.86}\protected@file@percent }
\@writefile{lof}{\contentsline {figure}{\numberline {85}{\ignorespaces Nichtinvertierende OPV Verstaerkerschaltung fuer Wechselspannungssignal\relax }}{84}{figure.caption.87}\protected@file@percent }
\gincltex@bb{res/opv/opv_verstaerker_suppressed_dc_circ.tex}{0}{0}{194.32869}{172.00883}
\gincltex@bb{res/opv/aktiver_tiefpass1_circ.tex}{0}{0}{251.02144}{143.66246}
\@writefile{lof}{\contentsline {figure}{\numberline {86}{\ignorespaces Nichtinvertierende OPV Verstaerkerschaltung mit frequenzabhaengigem Verstaerkungsfaktor\relax }}{85}{figure.caption.88}\protected@file@percent }
\@writefile{toc}{\contentsline {subsection}{\numberline {5.3}Aktive Filter}{85}{subsection.5.3}\protected@file@percent }
\@writefile{toc}{\contentsline {subsubsection}{\numberline {5.3.1}Aktiver Tiefpassfilter}{85}{subsubsection.5.3.1}\protected@file@percent }
\gincltex@bb{res/opv/aktiver_tiefpass2_circ.tex}{0}{0}{279.36783}{172.00883}
\@writefile{lof}{\contentsline {figure}{\numberline {87}{\ignorespaces RC-Tiefpass mit Verstaerkerendstufe\relax }}{86}{figure.caption.89}\protected@file@percent }
\@writefile{lof}{\contentsline {figure}{\numberline {88}{\ignorespaces Tiefpass mit verbesserter Eingangsimpedanz\relax }}{87}{figure.caption.90}\protected@file@percent }
\gincltex@bb{res/opv/aktiver_tiefpass3_circ.tex}{0}{0}{279.36783}{155.94826}
\@writefile{lof}{\contentsline {figure}{\numberline {89}{\ignorespaces Invertierende aktiver Tiefpass\relax }}{88}{figure.caption.91}\protected@file@percent }
\gincltex@bb{res/opv/aktiver_hochpass1_circ.tex}{0}{0}{251.02144}{143.66246}
\@writefile{toc}{\contentsline {subsubsection}{\numberline {5.3.2}Aktiver Hochpass}{90}{subsubsection.5.3.2}\protected@file@percent }
\@writefile{lof}{\contentsline {figure}{\numberline {90}{\ignorespaces RC-Hochpass mit Verstaerkerendstufe\relax }}{90}{figure.caption.92}\protected@file@percent }
\gincltex@bb{res/opv/aktiver_hochpass2_circ.tex}{0}{0}{265.19463}{143.66246}
\gincltex@bb{res/opv/aktiver_hochpass3_circ.tex}{0}{0}{279.36783}{121.0538}
\@writefile{lof}{\contentsline {figure}{\numberline {91}{\ignorespaces Nicht invertierender aktiver Hochpass\relax }}{91}{figure.caption.93}\protected@file@percent }
\@writefile{lof}{\contentsline {figure}{\numberline {92}{\ignorespaces Invertierender aktiver Hochpass\relax }}{92}{figure.caption.94}\protected@file@percent }
\gdef \LT@i {\LT@entry 
    {1}{24.08905pt}\LT@entry 
    {1}{219.0021pt}}
\@writefile{toc}{\contentsline {section}{Symbole}{94}{section*.95}\protected@file@percent }
\gdef \@abspage@last{94}
